Data Analysis
…
# neighborhood summary
neighborhood_summary <- Merged_HIV_UHF_Data %>%
  group_by(neighborhood_u_h_f) %>%
  summarize(
    total_concurrent_hiv_aids = sum(total_number_of_concurrent_hiv_aids_diagnoses, na.rm = TRUE),
    total_hiv_diagnoses = sum(total_number_of_hiv_diagnoses, na.rm = TRUE),
    proportion_concurrent = total_concurrent_hiv_aids / total_hiv_diagnoses
  ) %>%
  arrange(desc(proportion_concurrent))

print(neighborhood_summary)

## # A tibble: 35 × 4
##    neighborhood_u_h_f               total_concurrent_hiv_a…¹ total_hiv_diagnoses
##    <chr>                                               <int>               <int>
##  1 "Bayside - Little Neck"                                12                  44
##  2 "Coney Island -\nSheepshead Bay"                      180                 664
##  3 "Southwest Queens"                                    272                1036
##  4 "Borough Park"                                        116                 492
##  5 "Canarsie - Flatlands"                                220                 956
##  6 "West Queens"                                         612                2744
##  7 "East Flatbush -\nFlatbush"                           512                2320
##  8 "Flushing - Clearview"                                112                 508
##  9 "Stapleton - St.\nGeorge"                              88                 400
## 10 "Sunset Park"                                          92                 424
## # ℹ 25 more rows
## # ℹ abbreviated name: ¹​total_concurrent_hiv_aids
## # ℹ 1 more variable: proportion_concurrent <dbl>
…
