Exploratory Data Analysis
…
EDA

Temporal trends

Temporal trends of HIV diagnoses

# Group by Borough and Year and calculate average HIV diagnosis rates
avg_hiv = HIV_UHF_df |>
  group_by(borough, year) |>
  summarise(Avg_HIV_Rate = mean(hiv_diagnoses_per_100_000_population, na.rm = TRUE))

avg_hiv

## # A tibble: 30 × 3
## # Groups:   borough [5]
##    borough   year Avg_HIV_Rate
##    <chr>    <int>        <dbl>
##  1 Bronx     2016         44.3
##  2 Bronx     2017         52.3
##  3 Bronx     2018         27.6
##  4 Bronx     2019         59.4
##  5 Bronx     2020         34.0
##  6 Bronx     2021         43.2
##  7 Brooklyn  2016         26.2
##  8 Brooklyn  2017         32.2
##  9 Brooklyn  2018         22.7
## 10 Brooklyn  2019         23.5
## # ℹ 20 more rows
…
Temporal trends of AID diagnoses

# Group by Borough and Year and calculate average AIDS diagnosis rates
avg_aids = HIV_UHF_df |>
  group_by(borough, year) |>
  summarise(Avg_AIDS_Rate = mean(aids_diagnoses_per_100_000_population, na.rm = TRUE))

## `summarise()` has grouped output by 'borough'. You can override using the
## `.groups` argument.

avg_aids

## # A tibble: 30 × 3
## # Groups:   borough [5]
##    borough   year Avg_AIDS_Rate
##    <chr>    <int>         <dbl>
##  1 Bronx     2016          50.9
##  2 Bronx     2017          20.4
##  3 Bronx     2018          32.7
##  4 Bronx     2019          45.4
##  5 Bronx     2020          36.3
##  6 Bronx     2021          72.9
##  7 Brooklyn  2016          12.8
##  8 Brooklyn  2017          18.9
##  9 Brooklyn  2018          14.1
## 10 Brooklyn  2019          11.0
## # ℹ 20 more rows
…
Demographic Disparities

HIV Diagnoses by Sex and Race/Ethnicity

# Group by Sex and Ethnicity with average rate of HIV
avghiv_sex_ethinicity = HIV_UHF_df |>
  group_by(borough, year,sex,race_ethnicity) |>
  summarise(Avg_HIV_Rate = mean(hiv_diagnoses_per_100_000_population, na.rm = TRUE))

## `summarise()` has grouped output by 'borough', 'year', 'sex'. You can override
## using the `.groups` argument.

avghiv_sex_ethinicity

## # A tibble: 540 × 5
## # Groups:   borough, year, sex [90]
##    borough  year sex    race_ethnicity            Avg_HIV_Rate
##    <chr>   <int> <fct>  <fct>                            <dbl>
##  1 Bronx    2016 All    "All"                             50.5
##  2 Bronx    2016 All    "Asian/Pacific\nIslander"          0  
##  3 Bronx    2016 All    "Black"                           74.5
##  4 Bronx    2016 All    "Latino/Hispanic"                 41.2
##  5 Bronx    2016 All    "Other/Unknown"                    0  
##  6 Bronx    2016 All    "White"                           94.5
##  7 Bronx    2016 Female "All"                             27.9
##  8 Bronx    2016 Female "Asian/Pacific\nIslander"          0  
##  9 Bronx    2016 Female "Black"                           38.7
## 10 Bronx    2016 Female "Latino/Hispanic"                 22  
## # ℹ 530 more rows
…
Proportion of concurrent diagnoses by neighborhood

# Group by proportion of concurrent diagnoses by neighborhood
proprotion_diagnoses_neighborhood = HIV_UHF_df |>
  group_by(borough, year,neighborhood_u_h_f) |>
  summarise(Avg_proportion_Rate = mean(proportion_of_concurrent_hiv_aids_diagnoses_among_all_hiv_diagnoses, na.rm = TRUE)
            )

## `summarise()` has grouped output by 'borough', 'year'. You can override using
## the `.groups` argument.

proprotion_diagnoses_neighborhood

## # A tibble: 210 × 4
## # Groups:   borough, year [30]
##    borough   year neighborhood_u_h_f                    Avg_proportion_Rate
##    <chr>    <int> <chr>                                               <dbl>
##  1 Bronx     2016 "Crotona - Tremont"                                 12.4 
##  2 Bronx     2017 "Crotona - Tremont"                                  6.58
##  3 Bronx     2018 "Crotona - Tremont"                                 12.2 
##  4 Bronx     2019 "Crotona - Tremont"                                 24.6 
##  5 Bronx     2020 "Crotona - Tremont"                                 17.9 
##  6 Bronx     2021 "Crotona - Tremont"                                 30.9 
##  7 Brooklyn  2016 "Bedford Stuyvesant -\nCrown Heights"               18.5 
##  8 Brooklyn  2016 "Bensonhurst - Bay\nRidge"                          10.2 
##  9 Brooklyn  2016 "Borough Park"                                      50.0 
## 10 Brooklyn  2016 "Canarsie - Flatlands"                               0   
## # ℹ 200 more rows
…
Proportion of Concurrent Diagnoses by Sex

# Group by proportion of concurrent diagnoses by borough and sex with average rate of HIV
proprotion_diagnoses_sex = HIV_UHF_df |>
  group_by(borough, year,sex) |>
  summarise(Avg_proportion_Rate = mean(proportion_of_concurrent_hiv_aids_diagnoses_among_all_hiv_diagnoses, na.rm = TRUE)
            )

## `summarise()` has grouped output by 'borough', 'year'. You can override using
## the `.groups` argument.

proprotion_diagnoses_sex

## # A tibble: 90 × 4
## # Groups:   borough, year [30]
##    borough  year sex    Avg_proportion_Rate
##    <chr>   <int> <fct>                <dbl>
##  1 Bronx    2016 All                  14.2 
##  2 Bronx    2016 Female                5.5 
##  3 Bronx    2016 Male                 17.6 
##  4 Bronx    2017 All                   7.02
##  5 Bronx    2017 Female                3.4 
##  6 Bronx    2017 Male                  8.68
##  7 Bronx    2018 All                  12.3 
##  8 Bronx    2018 Female               11.8 
##  9 Bronx    2018 Male                 12.4 
## 10 Bronx    2019 All                  27.2 
## # ℹ 80 more rows
…
Proportion of Concurrent Diagnoses by Race/Ethnicity

# Group by proportion of concurrent diagnoses by borough and ethnicity with average rate of HIV
proprotion_diagnoses_race = HIV_UHF_df |>
  group_by(borough, year,race_ethnicity) |>
  summarise(Avg_proportion_Rate = mean(proportion_of_concurrent_hiv_aids_diagnoses_among_all_hiv_diagnoses, na.rm = TRUE)
            )

## `summarise()` has grouped output by 'borough', 'year'. You can override using
## the `.groups` argument.

proprotion_diagnoses_race

## # A tibble: 180 × 4
## # Groups:   borough, year [30]
##    borough  year race_ethnicity            Avg_proportion_Rate
##    <chr>   <int> <fct>                                   <dbl>
##  1 Bronx    2016 "All"                                   16.4 
##  2 Bronx    2016 "Asian/Pacific\nIslander"              NaN   
##  3 Bronx    2016 "Black"                                 15.4 
##  4 Bronx    2016 "Latino/Hispanic"                       17.9 
##  5 Bronx    2016 "Other/Unknown"                        NaN   
##  6 Bronx    2016 "White"                                  0   
##  7 Bronx    2017 "All"                                    9.47
##  8 Bronx    2017 "Asian/Pacific\nIslander"              NaN   
##  9 Bronx    2017 "Black"                                 15.1 
## 10 Bronx    2017 "Latino/Hispanic"                        6.17
## # ℹ 170 more rows
…
