Exploratory Data Analysis
…
# Export the merged data
write.csv(HIV_UHF_df, "Merged_HIV_UHF_Data.csv", row.names = FALSE)

# Group by Borough and Year and calculate average HIV diagnosis rates
borough_trends = HIV_UHF_df |>
  group_by(borough, year) |>
  summarise(Avg_HIV_Rate = mean(hiv_diagnoses_per_100_000_population, na.rm = TRUE))

## `summarise()` has grouped output by 'borough'. You can override using the
## `.groups` argument.

borough_trends

## # A tibble: 30 × 3
## # Groups:   borough [5]
##    borough   year Avg_HIV_Rate
##    <chr>    <int>        <dbl>
##  1 Bronx     2016         44.3
##  2 Bronx     2017         52.3
##  3 Bronx     2018         27.6
##  4 Bronx     2019         59.4
##  5 Bronx     2020         34.0
##  6 Bronx     2021         43.2
##  7 Brooklyn  2016         26.2
##  8 Brooklyn  2017         32.2
##  9 Brooklyn  2018         22.7
## 10 Brooklyn  2019         23.5
## # ℹ 20 more rows
…
